<?xml version="1.0" encoding="utf-8"?>
<!-- Generator: Adobe Illustrator 18.0.0, SVG Export Plug-In . SVG Version: 6.00 Build 0)  -->
<!DOCTYPE svg PUBLIC "-//W3C//DTD SVG 1.1//EN" "http://www.w3.org/Graphics/SVG/1.1/DTD/svg11.dtd">
<svg version="1.1" id="Layer_1" xmlns="http://www.w3.org/2000/svg" xmlns:xlink="http://www.w3.org/1999/xlink" x="0px" y="0px"
	 viewBox="0 0 344.7 132" enable-background="new 0 0 344.7 132" xml:space="preserve">
<g>
	<g>
		<g>
			<g>
				<path fill="#1A1A1A" d="M140.4,89.5c2.3,0,4.2,0.7,5.7,2c1.5,1.4,2.2,3.1,2.2,5.3c0,2.4-1.1,4.2-3.2,5.5
					c1.3,0.7,2.3,1.6,2.9,2.6c0.6,1,0.9,2.3,0.9,3.7c0,1.4-0.4,2.7-1.1,3.9c-0.7,1.2-1.8,2.1-3.1,2.7c-1.3,0.6-2.8,1-4.3,1
					c-2.5,0-4.5-0.7-6.1-2.1c-1.6-1.4-2.4-3.2-2.4-5.5c0-1.5,0.3-2.7,1-3.8c0.6-1,1.6-1.9,2.9-2.5c-2.1-1.4-3.2-3.2-3.2-5.6
					c0-2.1,0.7-3.9,2.2-5.2C136.2,90.2,138.1,89.5,140.4,89.5z M136.7,108.4c0,1.3,0.3,2.3,1,3c0.7,0.7,1.6,1.1,2.7,1.1
					c1.1,0,2-0.4,2.7-1.1c0.7-0.7,1-1.7,1-2.9c0-1.2-0.3-2.2-1-3c-0.7-0.8-1.5-1.2-2.6-1.2c-1.1,0-2,0.4-2.7,1.1
					C137.1,106.2,136.7,107.2,136.7,108.4z M137.3,96.9c0,1.1,0.3,2,0.9,2.8c0.6,0.7,1.4,1.1,2.3,1.1c0.9,0,1.6-0.4,2.2-1.1
					c0.6-0.7,0.9-1.6,0.9-2.7c0-1.1-0.3-2-0.8-2.7c-0.6-0.7-1.3-1-2.3-1c-1,0-1.7,0.3-2.3,1C137.6,94.8,137.3,95.7,137.3,96.9z"/>
				<path fill="#1A1A1A" d="M170.7,89.5c2.5,0,4.4,0.7,5.9,2.1c1.5,1.4,2.2,3.3,2.2,5.6c0,1.8-0.5,3.7-1.6,5.8
					c-1.1,2.1-3,4.9-5.7,8.3h8.9v4.5h-16.9v-0.5c2-2.4,3.7-4.6,5.1-6.5c1.4-1.9,2.5-3.5,3.3-4.8c0.8-1.3,1.3-2.4,1.6-3.3
					c0.3-0.9,0.5-1.8,0.5-2.8c0-1.2-0.4-2.2-1.1-3c-0.8-0.8-1.7-1.2-2.8-1.2c-2,0-4,1.1-6.1,3.4V92
					C166.1,90.3,168.4,89.5,170.7,89.5z"/>
				<path fill="#1A1A1A" d="M203.7,89.5c2.6,0,4.7,1.2,6.3,3.6c1.5,2.4,2.3,5.6,2.3,9.7c0,4.2-0.8,7.4-2.3,9.8
					c-1.5,2.4-3.6,3.6-6.3,3.6c-2.7,0-4.8-1.2-6.4-3.6c-1.6-2.4-2.3-5.6-2.3-9.8c0-4.1,0.8-7.4,2.3-9.8
					C198.9,90.7,201,89.5,203.7,89.5z M199.9,103c0,6,1.3,8.9,3.8,8.9c2.5,0,3.7-3.1,3.7-9.4c0-5.9-1.3-8.8-3.8-8.8
					C201.1,93.8,199.9,96.8,199.9,103z"/>
			</g>
		</g>
		<g>
			<path fill="#1A1A1A" d="M71.5,15.8c5.2,0,10.1,1.3,14.9,3.9v9.1c-5.5-3.3-10.4-5-14.6-5c-2.6,0-4.6,0.5-6.1,1.5
				c-1.5,1-2.2,2.3-2.2,4c0,2,1.4,3.9,4.1,5.6c0.8,0.5,3.7,1.9,8.8,4.3c4.4,2.1,7.5,4.3,9.4,6.8c1.9,2.5,2.9,5.5,2.9,9
				c0,4.6-1.6,8.2-4.9,11c-3.3,2.8-7.5,4.2-12.8,4.2c-3.4,0-6.3-0.4-8.8-1.1c-2.4-0.7-5.2-2-8.2-3.9V55.2c5.7,4.7,11,7.1,16,7.1
				c2.5,0,4.5-0.5,6.1-1.6c1.5-1.1,2.3-2.5,2.3-4.3c0-2.5-1.3-4.5-4-6c-2.2-1.2-5.1-2.7-8.6-4.4c-4.2-1.9-7.3-4.1-9.4-6.7
				c-2.1-2.5-3.1-5.5-3.1-8.8c0-4.5,1.7-8,5-10.7C61.7,17.1,66.1,15.8,71.5,15.8z"/>
			<path fill="#1A1A1A" d="M144.6,16.5v8h-18.9v45.1h-10.3V24.5H96.6v-8H144.6z"/>
			<path fill="#1A1A1A" d="M179.9,15.8c5.3,0,10.1,1.1,14.3,3.4c4.2,2.3,7.6,5.5,10.2,9.8c2.5,4.3,3.8,9,3.8,14
				c0,5-1.2,9.6-3.7,13.8s-5.8,7.5-10.1,9.9c-4.3,2.3-9.1,3.5-14.5,3.5c-5.3,0-10.1-1.2-14.5-3.6c-4.3-2.4-7.7-5.7-10.2-9.8
				c-2.4-4.2-3.6-8.8-3.6-13.8c0-4.9,1.2-9.4,3.6-13.7c2.4-4.3,5.8-7.6,10-10C169.5,17,174.4,15.8,179.9,15.8z M161.8,43
				c0,3.5,0.8,6.7,2.3,9.5c1.5,2.8,3.7,5,6.4,6.5c2.8,1.5,5.9,2.3,9.3,2.3c5.3,0,9.6-1.7,13-5.1c3.4-3.4,5.1-7.8,5.1-13.2
				c0-3.5-0.8-6.7-2.3-9.5c-1.5-2.8-3.7-5-6.5-6.6c-2.8-1.5-5.9-2.3-9.4-2.3c-3.5,0-6.6,0.8-9.4,2.3c-2.8,1.6-4.9,3.7-6.4,6.5
				C162.5,36.3,161.8,39.5,161.8,43z"/>
			<path fill="#1A1A1A" d="M238.6,16.5c5,0,9.1,1.4,12.2,4.1c3.1,2.8,4.7,6.4,4.7,10.8c0,3-0.8,5.6-2.3,7.9c-1.6,2.2-3.9,4-6.9,5.3
				c1.7,0.9,3.2,2.2,4.5,3.7c1.3,1.6,3,4.2,4.9,7.9c3.2,6.4,5.6,10.9,7.2,13.3h-11.4c-0.8-1.2-1.9-3-3.2-5.6
				c-2.9-5.6-5.1-9.5-6.5-11.4c-1.4-2-2.7-3.4-4-4.2c-1.3-0.8-2.7-1.2-4.4-1.2h-3.7v22.4h-10.3V16.5H238.6z M236.3,39.1
				c2.7,0,4.8-0.7,6.3-2c1.5-1.3,2.3-3.2,2.3-5.5c0-2.4-0.8-4.2-2.3-5.5c-1.5-1.2-3.7-1.8-6.5-1.8h-6.4v14.8H236.3z"/>
			<path fill="#1A1A1A" d="M284.5,16.5v53.1h-10.3V16.5H284.5z"/>
			<path fill="#1A1A1A" d="M311.1,16.5v45.1h25.8v8h-36V16.5H311.1z"/>
			<rect x="7.3" y="16.5" fill="#54284E" width="34.3" height="7.9"/>
			<rect x="7.3" y="38.3" fill="#54284E" width="33.2" height="7.9"/>
			<rect x="7.3" y="61.6" fill="#54284E" width="34.3" height="7.9"/>
		</g>
		<rect x="7.3" y="101.7" fill="#1A1A1A" width="90.8" height="2"/>
		<rect x="247" y="101.7" fill="#1A1A1A" width="90.4" height="2"/>
	</g>
</g>
</svg>
