<?xml version="1.0" encoding="utf-8"?>
<!-- Generator: Adobe Illustrator 17.0.0, SVG Export Plug-In . SVG Version: 6.00 Build 0)  -->
<!DOCTYPE svg PUBLIC "-//W3C//DTD SVG 1.1//EN" "http://www.w3.org/Graphics/SVG/1.1/DTD/svg11.dtd">
<svg version="1.1" id="Layer_1" xmlns="http://www.w3.org/2000/svg" xmlns:xlink="http://www.w3.org/1999/xlink" x="0px" y="0px"
	 width="70px" height="61px" viewBox="0 0 70 61" enable-background="new 0 0 70 61" xml:space="preserve">
<g>
	<line fill="none" stroke="#36212B" stroke-width="3" stroke-miterlimit="10" x1="5" y1="17.5" x2="66" y2="17.5"/>
	<line fill="none" stroke="#36212B" stroke-width="3" stroke-miterlimit="10" x1="5" y1="30.5" x2="66" y2="30.5"/>
	<line fill="none" stroke="#36212B" stroke-width="3" stroke-miterlimit="10" x1="5" y1="43.5" x2="66" y2="43.5"/>
</g>
</svg>
