<svg xmlns="http://www.w3.org/2000/svg" width="57" height="85" viewBox="0 0 57 85">
  <g fill="none" fill-rule="evenodd" transform="translate(2 2)">
    <path fill="#54274E" stroke="#FFFFFF" stroke-width="3" d="M52.6511727,26.6187588 C52.6511727,11.9141186 40.944144,0 26.5168881,0 C12.0896322,0 0.382603543,11.9205189 0.382603543,26.6187588 C0.382603543,41.3169986 26.5168881,79.8626765 26.5168881,79.8626765 C26.5168881,79.8626765 52.6511727,41.3169986 52.6511727,26.6187588"/>
    <g fill="#FFFFFF" transform="translate(18 18)">
      <polygon points="0 3.838 16.617 3.838 16.617 0 0 0"/>
      <polygon points="0 14.42 16.095 14.42 16.095 10.582 0 10.582"/>
      <polygon points="0 25.739 16.617 25.739 16.617 21.901 0 21.901"/>
    </g>
  </g>
</svg>
